flipflop/simulation/qsim/flipflop.msim.vcd
$comment
	File created using the following command:
		vcd file flipflop.msim.vcd -direction
$end
$date
	Thu Aug 16 15:36:48 2018
$end
$version
	ModelSim Version 10.5b
$end
$timescale
	1ps
$end

$scope module flipflop_vhd_vec_tst $end
$var wire 1 ! clk $end
$var wire 1 " D $end
$var wire 1 # Q $end
$var wire 1 $ Q_linha $end

$scope module i1 $end
$var wire 1 % gnd $end
$var wire 1 & vcc $end
$var wire 1 ' unknown $end
$var wire 1 ( devoe $end
$var wire 1 ) devclrn $end
$var wire 1 * devpor $end
$var wire 1 + ww_devoe $end
$var wire 1 , ww_devclrn $end
$var wire 1 - ww_devpor $end
$var wire 1 . ww_D $end
$var wire 1 / ww_clk $end
$var wire 1 0 ww_Q $end
$var wire 1 1 ww_Q_linha $end
$var wire 1 2 \clk~inputclkctrl_INCLK_bus\ [3] $end
$var wire 1 3 \clk~inputclkctrl_INCLK_bus\ [2] $end
$var wire 1 4 \clk~inputclkctrl_INCLK_bus\ [1] $end
$var wire 1 5 \clk~inputclkctrl_INCLK_bus\ [0] $end
$var wire 1 6 \Q~output_o\ $end
$var wire 1 7 \Q_linha~output_o\ $end
$var wire 1 8 \clk~input_o\ $end
$var wire 1 9 \clk~inputclkctrl_outclk\ $end
$var wire 1 : \D~input_o\ $end
$var wire 1 ; \Q~reg0feeder_combout\ $end
$var wire 1 < \Q~reg0_q\ $end
$var wire 1 = \Q_linha~0_combout\ $end
$var wire 1 > \Q_linha~reg0_q\ $end
$upscope $end
$upscope $end
$enddefinitions $end
#0
$dumpvars
0!
0"
0#
0$
0%
1&
x'
1(
1)
1*
1+
1,
1-
0.
0/
00
01
06
07
08
09
0:
0;
0<
1=
0>
12
13
14
05
$end
#20000
1!
1/
18
15
19
1>
17
11
1$
#30000
1"
1.
1:
1;
0=
#40000
0!
0/
08
05
09
#60000
1!
0"
1/
0.
0:
18
15
0;
1=
19
#80000
0!
0/
08
05
09
#90000
1"
1.
1:
1;
0=
#100000
1!
1/
18
15
19
1<
0>
07
16
01
10
0$
1#
#120000
0!
0"
0/
0.
0:
08
05
0;
1=
09
#140000
1!
1/
18
15
19
0<
1>
17
06
11
00
1$
0#
#150000
1"
1.
1:
1;
0=
#160000
0!
0/
08
05
09
#180000
1!
0"
1/
0.
0:
18
15
0;
1=
19
#200000
0!
0/
08
05
09
#210000
1"
1.
1:
1;
0=
#220000
1!
1/
18
15
19
1<
0>
07
16
01
10
0$
1#
#240000
0!
0"
0/
0.
0:
08
05
0;
1=
09
#260000
1!
1/
18
15
19
0<
1>
17
06
11
00
1$
0#
#270000
1"
1.
1:
1;
0=
#280000
0!
0/
08
05
09
#300000
1!
0"
1/
0.
0:
18
15
0;
1=
19
#320000
0!
0/
08
05
09
#330000
1"
1.
1:
1;
0=
#340000
1!
1/
18
15
19
1<
0>
07
16
01
10
0$
1#
#360000
0!
0"
0/
0.
0:
08
05
0;
1=
09
#380000
1!
1/
18
15
19
0<
1>
17
06
11
00
1$
0#
#390000
1"
1.
1:
1;
0=
#400000
0!
0/
08
05
09
#420000
1!
0"
1/
0.
0:
18
15
0;
1=
19
#440000
0!
0/
08
05
09
#450000
1"
1.
1:
1;
0=
#460000
1!
1/
18
15
19
1<
0>
07
16
01
10
0$
1#
#480000
0!
0"
0/
0.
0:
08
05
0;
1=
09
#500000
1!
1/
18
15
19
0<
1>
17
06
11
00
1$
0#
#510000
1"
1.
1:
1;
0=
#520000
0!
0/
08
05
09
#540000
1!
0"
1/
0.
0:
18
15
0;
1=
19
#560000
0!
0/
08
05
09
#570000
1"
1.
1:
1;
0=
#580000
1!
1/
18
15
19
1<
0>
07
16
01
10
0$
1#
#600000
0!
0"
0/
0.
0:
08
05
0;
1=
09
#620000
1!
1/
18
15
19
0<
1>
17
06
11
00
1$
0#
#630000
1"
1.
1:
1;
0=
#640000
0!
0/
08
05
09
#660000
1!
0"
1/
0.
0:
18
15
0;
1=
19
#680000
0!
0/
08
05
09
#690000
1"
1.
1:
1;
0=
#700000
1!
1/
18
15
19
1<
0>
07
16
01
10
0$
1#
#720000
0!
0"
0/
0.
0:
08
05
0;
1=
09
#740000
1!
1/
18
15
19
0<
1>
17
06
11
00
1$
0#
#750000
1"
1.
1:
1;
0=
#760000
0!
0/
08
05
09
#780000
1!
0"
1/
0.
0:
18
15
0;
1=
19
#800000
0!
0/
08
05
09
#810000
1"
1.
1:
1;
0=
#820000
1!
1/
18
15
19
1<
0>
07
16
01
10
0$
1#
#840000
0!
0"
0/
0.
0:
08
05
0;
1=
09
#860000
1!
1/
18
15
19
0<
1>
17
06
11
00
1$
0#
#870000
1"
1.
1:
1;
0=
#880000
0!
0/
08
05
09
#900000
1!
0"
1/
0.
0:
18
15
0;
1=
19
#920000
0!
0/
08
05
09
#930000
1"
1.
1:
1;
0=
#940000
1!
1/
18
15
19
1<
0>
07
16
01
10
0$
1#
#960000
0!
0"
0/
0.
0:
08
05
0;
1=
09
#980000
1!
1/
18
15
19
0<
1>
17
06
11
00
1$
0#
#990000
1"
1.
1:
1;
0=
