Aula01/simulation/qsim/Aula01.msim.vcd
$comment
	File created using the following command:
		vcd file Aula01.msim.vcd -direction
$end
$date
	Tue Aug 14 14:52:28 2018
$end
$version
	ModelSim Version 10.5b
$end
$timescale
	1ps
$end

$scope module Aula01_vlg_vec_tst $end
$var reg 1 ! A $end
$var reg 1 " B $end
$var reg 1 # C $end
$var reg 1 $ D $end
$var wire 1 % OUT $end

$scope module i1 $end
$var wire 1 & gnd $end
$var wire 1 ' vcc $end
$var wire 1 ( unknown $end
$var tri1 1 ) devclrn $end
$var tri1 1 * devpor $end
$var tri1 1 + devoe $end
$var wire 1 , OUT~output_o $end
$var wire 1 - D~input_o $end
$var wire 1 . A~input_o $end
$var wire 1 / C~input_o $end
$var wire 1 0 B~input_o $end
$var wire 1 1 inst7~0_combout $end
$upscope $end
$upscope $end
$enddefinitions $end
#0
$dumpvars
0!
0"
0#
0$
0%
0&
1'
x(
1)
1*
1+
0,
0-
0.
0/
00
01
$end
#20000
1$
1-
11
1,
1%
#40000
1#
0$
1/
0-
01
0,
0%
#60000
1$
1-
11
1,
1%
#80000
1"
0#
0$
10
0/
0-
01
0,
0%
#100000
1$
1-
#120000
1#
0$
1/
0-
#140000
1$
1-
#160000
1!
0"
0#
0$
1.
00
0/
0-
11
1,
1%
#180000
1$
1-
#200000
1#
0$
1/
0-
01
0,
0%
#220000
1$
1-
11
1,
1%
#240000
1"
0#
0$
10
0/
0-
01
0,
0%
#260000
1$
1-
11
1,
1%
#280000
1#
0$
1/
0-
01
0,
0%
#300000
1$
1-
11
1,
1%
#320000
0!
0"
0#
0$
0.
00
0/
0-
01
0,
0%
#340000
1$
1-
11
1,
1%
#360000
1#
0$
1/
0-
01
0,
0%
#380000
1$
1-
11
1,
1%
#400000
1"
0#
0$
10
0/
0-
01
0,
0%
#420000
1$
1-
#440000
1#
0$
1/
0-
#460000
1$
1-
#480000
1!
0"
0#
0$
1.
00
0/
0-
11
1,
1%
#500000
1$
1-
#520000
1#
0$
1/
0-
01
0,
0%
#540000
1$
1-
11
1,
1%
#560000
1"
0#
0$
10
0/
0-
01
0,
0%
#580000
1$
1-
11
1,
1%
#600000
1#
0$
1/
0-
01
0,
0%
#620000
1$
1-
11
1,
1%
#640000
0!
0"
0#
0$
0.
00
0/
0-
01
0,
0%
#660000
1$
1-
11
1,
1%
#680000
1#
0$
1/
0-
01
0,
0%
#700000
1$
1-
11
1,
1%
#720000
1"
0#
0$
10
0/
0-
01
0,
0%
#740000
1$
1-
#760000
1#
0$
1/
0-
#780000
1$
1-
#800000
1!
0"
0#
0$
1.
00
0/
0-
11
1,
1%
#820000
1$
1-
#840000
1#
0$
1/
0-
01
0,
0%
#860000
1$
1-
11
1,
1%
#880000
1"
0#
0$
10
0/
0-
01
0,
0%
#900000
1$
1-
11
1,
1%
#920000
1#
0$
1/
0-
01
0,
0%
#940000
1$
1-
11
1,
1%
#960000
0!
0"
0#
0$
0.
00
0/
0-
01
0,
0%
#980000
1$
1-
11
1,
1%
