ULA/simulation/qsim/ULA.msim.vcd
$comment
	File created using the following command:
		vcd file ULA.msim.vcd -direction
$end
$date
	Thu Aug 16 12:32:57 2018
$end
$version
	ModelSim Version 10.5b
$end
$timescale
	1ps
$end

$scope module ula_vhd_vec_tst $end
$var wire 1 ! a [7] $end
$var wire 1 " a [6] $end
$var wire 1 # a [5] $end
$var wire 1 $ a [4] $end
$var wire 1 % a [3] $end
$var wire 1 & a [2] $end
$var wire 1 ' a [1] $end
$var wire 1 ( a [0] $end
$var wire 1 ) b [7] $end
$var wire 1 * b [6] $end
$var wire 1 + b [5] $end
$var wire 1 , b [4] $end
$var wire 1 - b [3] $end
$var wire 1 . b [2] $end
$var wire 1 / b [1] $end
$var wire 1 0 b [0] $end
$var wire 1 1 m [2] $end
$var wire 1 2 m [1] $end
$var wire 1 3 m [0] $end
$var wire 1 4 result [7] $end
$var wire 1 5 result [6] $end
$var wire 1 6 result [5] $end
$var wire 1 7 result [4] $end
$var wire 1 8 result [3] $end
$var wire 1 9 result [2] $end
$var wire 1 : result [1] $end
$var wire 1 ; result [0] $end
$var wire 1 < z $end

$scope module i1 $end
$var wire 1 = gnd $end
$var wire 1 > vcc $end
$var wire 1 ? unknown $end
$var wire 1 @ devoe $end
$var wire 1 A devclrn $end
$var wire 1 B devpor $end
$var wire 1 C ww_devoe $end
$var wire 1 D ww_devclrn $end
$var wire 1 E ww_devpor $end
$var wire 1 F ww_a [7] $end
$var wire 1 G ww_a [6] $end
$var wire 1 H ww_a [5] $end
$var wire 1 I ww_a [4] $end
$var wire 1 J ww_a [3] $end
$var wire 1 K ww_a [2] $end
$var wire 1 L ww_a [1] $end
$var wire 1 M ww_a [0] $end
$var wire 1 N ww_b [7] $end
$var wire 1 O ww_b [6] $end
$var wire 1 P ww_b [5] $end
$var wire 1 Q ww_b [4] $end
$var wire 1 R ww_b [3] $end
$var wire 1 S ww_b [2] $end
$var wire 1 T ww_b [1] $end
$var wire 1 U ww_b [0] $end
$var wire 1 V ww_m [2] $end
$var wire 1 W ww_m [1] $end
$var wire 1 X ww_m [0] $end
$var wire 1 Y ww_result [7] $end
$var wire 1 Z ww_result [6] $end
$var wire 1 [ ww_result [5] $end
$var wire 1 \ ww_result [4] $end
$var wire 1 ] ww_result [3] $end
$var wire 1 ^ ww_result [2] $end
$var wire 1 _ ww_result [1] $end
$var wire 1 ` ww_result [0] $end
$var wire 1 a ww_z $end
$var wire 1 b \result[0]~output_o\ $end
$var wire 1 c \result[1]~output_o\ $end
$var wire 1 d \result[2]~output_o\ $end
$var wire 1 e \result[3]~output_o\ $end
$var wire 1 f \result[4]~output_o\ $end
$var wire 1 g \result[5]~output_o\ $end
$var wire 1 h \result[6]~output_o\ $end
$var wire 1 i \result[7]~output_o\ $end
$var wire 1 j \z~output_o\ $end
$var wire 1 k \a[0]~input_o\ $end
$var wire 1 l \m[2]~input_o\ $end
$var wire 1 m \m[0]~input_o\ $end
$var wire 1 n \m[1]~input_o\ $end
$var wire 1 o \Mux0~1_combout\ $end
$var wire 1 p \Mux0~0_combout\ $end
$var wire 1 q \b[0]~input_o\ $end
$var wire 1 r \Add0~0_combout\ $end
$var wire 1 s \Add0~2_cout\ $end
$var wire 1 t \Add0~3_combout\ $end
$var wire 1 u \Mux7~0_combout\ $end
$var wire 1 v \Mux0~2_combout\ $end
$var wire 1 w \Mux7~combout\ $end
$var wire 1 x \a[1]~input_o\ $end
$var wire 1 y \b[1]~input_o\ $end
$var wire 1 z \Add0~5_combout\ $end
$var wire 1 { \Add0~4\ $end
$var wire 1 | \Add0~6_combout\ $end
$var wire 1 } \Mux6~0_combout\ $end
$var wire 1 ~ \Mux6~combout\ $end
$var wire 1 !! \a[2]~input_o\ $end
$var wire 1 "! \b[2]~input_o\ $end
$var wire 1 #! \Add0~8_combout\ $end
$var wire 1 $! \Add0~7\ $end
$var wire 1 %! \Add0~9_combout\ $end
$var wire 1 &! \Mux5~0_combout\ $end
$var wire 1 '! \Mux5~combout\ $end
$var wire 1 (! \b[3]~input_o\ $end
$var wire 1 )! \a[3]~input_o\ $end
$var wire 1 *! \Add0~11_combout\ $end
$var wire 1 +! \Add0~10\ $end
$var wire 1 ,! \Add0~12_combout\ $end
$var wire 1 -! \Mux4~0_combout\ $end
$var wire 1 .! \Mux4~combout\ $end
$var wire 1 /! \a[4]~input_o\ $end
$var wire 1 0! \b[4]~input_o\ $end
$var wire 1 1! \Add0~14_combout\ $end
$var wire 1 2! \Add0~13\ $end
$var wire 1 3! \Add0~15_combout\ $end
$var wire 1 4! \Mux3~0_combout\ $end
$var wire 1 5! \Mux3~combout\ $end
$var wire 1 6! \a[5]~input_o\ $end
$var wire 1 7! \b[5]~input_o\ $end
$var wire 1 8! \Add0~17_combout\ $end
$var wire 1 9! \Add0~16\ $end
$var wire 1 :! \Add0~18_combout\ $end
$var wire 1 ;! \Mux2~0_combout\ $end
$var wire 1 <! \Mux2~combout\ $end
$var wire 1 =! \a[6]~input_o\ $end
$var wire 1 >! \b[6]~input_o\ $end
$var wire 1 ?! \Add0~20_combout\ $end
$var wire 1 @! \Add0~19\ $end
$var wire 1 A! \Add0~21_combout\ $end
$var wire 1 B! \Mux1~0_combout\ $end
$var wire 1 C! \Mux1~combout\ $end
$var wire 1 D! \b[7]~input_o\ $end
$var wire 1 E! \Add0~23_combout\ $end
$var wire 1 F! \a[7]~input_o\ $end
$var wire 1 G! \Add0~22\ $end
$var wire 1 H! \Add0~24_combout\ $end
$var wire 1 I! \Mux0~3_combout\ $end
$var wire 1 J! \Mux0~combout\ $end
$var wire 1 K! \Equal0~1_combout\ $end
$var wire 1 L! \Equal0~0_combout\ $end
$var wire 1 M! \Equal0~2_combout\ $end
$upscope $end
$upscope $end
$enddefinitions $end
#0
$dumpvars
1<
0=
1>
x?
1@
1A
1B
1C
1D
1E
1a
0b
0c
0d
0e
0f
0g
0h
0i
1j
0k
0l
0m
0n
0o
1p
0q
0r
0s
0t
0u
0v
0w
0x
0y
0z
1{
0|
0}
0~
0!!
0"!
0#!
0$!
0%!
0&!
0'!
0(!
0)!
0*!
1+!
0,!
0-!
0.!
0/!
00!
01!
02!
03!
04!
05!
06!
07!
08!
19!
0:!
0;!
0<!
0=!
0>!
0?!
0@!
0A!
0B!
0C!
0D!
0E!
0F!
1G!
0H!
0I!
0J!
1K!
1L!
1M!
0!
0"
0#
0$
0%
0&
0'
0(
0)
0*
0+
0,
0-
0.
0/
00
01
02
03
0F
0G
0H
0I
0J
0K
0L
0M
0N
0O
0P
0Q
0R
0S
0T
0U
0V
0W
0X
0Y
0Z
0[
0\
0]
0^
0_
0`
04
05
06
07
08
09
0:
0;
$end
#10000
1(
1M
1k
1t
1u
1w
0K!
0M!
1b
1`
1;
0j
0a
0<
#15000
13
1X
1m
1r
1s
1z
1#!
1*!
11!
18!
1?!
1E!
1H!
1A!
1:!
13!
1,!
1%!
1|
0{
0|
1$!
1}
1&!
1-!
14!
1;!
1B!
1I!
1J!
1C!
1<!
15!
1.!
1'!
1~
0%!
0+!
0}
0~
0,!
12!
0&!
0L!
0'!
03!
09!
0-!
1c
1d
1e
1f
1g
1h
1i
0.!
0:!
1@!
04!
1_
1^
1]
1\
1[
1Z
1Y
0c
1:
19
18
17
16
15
14
05!
0A!
0G!
0;!
0_
0d
0:
0<!
0H!
0B!
0^
0e
09
0C!
0I!
1L!
0]
0f
08
0J!
0\
0g
07
0[
0h
06
0Z
0i
05
0Y
04
#20000
0(
1'
10
0M
1L
1U
1q
1x
0k
0t
1|
0r
1t
1{
1}
0u
0w
1~
0|
1u
1w
0}
0~
1c
0b
1_
0`
1b
0;
1:
1`
0c
1;
0_
0:
#30000
1(
03
12
1M
0X
1W
1n
0m
1k
0t
0{
1r
0s
0z
0#!
0*!
01!
08!
0?!
0E!
0p
1v
1~
1}
1&!
1-!
14!
1;!
1B!
1I!
1H!
1A!
1G!
1:!
0@!
13!
19!
1,!
02!
1%!
1+!
0,!
03!
0:!
0A!
0H!
0~
1c
1_
0c
1:
0_
0:
#40000
0(
0'
00
1&
1/
0M
0L
1K
0U
1T
1y
0q
1!!
0x
0k
1t
1{
1|
0$!
0%!
0+!
0r
0w
1z
1K!
0t
1,!
1%!
1+!
0,!
1M!
0b
0`
0;
1j
1a
1<
#45000
13
1X
1m
1o
1r
1s
0z
1#!
1*!
11!
18!
1?!
1E!
1H!
1A!
1:!
13!
1,!
0%!
0+!
0|
0{
0u
0}
0&!
0-!
04!
0;!
0B!
0I!
1'!
1~
1|
0,!
12!
03!
09!
0K!
0M!
0:!
1@!
1c
1d
0A!
0G!
1_
1^
1:
19
0H!
0j
0a
0<
#50000
1(
1M
1k
1t
1w
1b
1`
1;
#60000
0(
03
1'
10
02
11
0M
1L
0X
0W
1V
1U
1q
1l
0n
0m
1x
0k
0t
0|
1$!
0s
1z
0#!
0*!
01!
08!
0?!
0E!
1p
0v
0w
0~
0'!
1-!
14!
1;!
1B!
1I!
1H!
1A!
1G!
1:!
0@!
13!
19!
1,!
02!
1|
1t
1{
1u
1w
0|
03!
0:!
0A!
0H!
1J!
1C!
1<!
15!
1.!
1K!
0L!
0K!
0d
0c
0b
0^
0_
0`
1e
1f
1g
1h
1i
1b
0;
0:
09
1]
1\
1[
1Z
1Y
1`
1;
18
17
16
15
14
#70000
1(
1M
1k
0t
0{
0u
0w
1|
0b
0`
0;
#75000
13
1X
1m
0p
0r
1s
0z
1#!
1*!
11!
18!
1?!
1E!
1H!
1A!
1:!
13!
0,!
12!
1%!
0|
0-!
04!
0;!
0B!
0I!
0J!
0C!
0<!
05!
0.!
03!
09!
0:!
1@!
1K!
1L!
1M!
0A!
0G!
0e
0f
0g
0h
0i
0H!
0]
0\
0[
0Z
0Y
08
07
06
05
04
1j
1a
1<
#80000
0(
0'
00
0&
0/
1%
1.
0M
0L
0K
1J
0U
0T
1S
1"!
0y
0q
1)!
0!!
0x
0k
1t
1{
1|
0$!
0%!
1,!
1r
1z
0#!
0t
0{
1+!
0,!
0|
1$!
1%!
#90000
1(
03
12
1M
0X
1W
1n
0m
1k
1t
0r
0s
0z
1#!
0*!
01!
08!
0?!
0E!
1H!
1A!
1G!
1:!
0@!
13!
19!
1,!
02!
0%!
0+!
1|
0$!
1{
0|
1%!
1+!
0,!
12!
03!
0:!
0A!
0H!
13!
1,!
02!
03!
#100000
0(
1'
10
0M
1L
1U
1q
1x
0k
0t
1|
1r
1t
#105000
13
1X
1m
0r
1s
1z
0#!
1*!
11!
18!
1?!
1E!
1H!
1A!
1:!
13!
0,!
12!
0%!
0|
1$!
1%!
03!
09!
0:!
1@!
0A!
0G!
0H!
#110000
1(
1M
1k
0t
0{
1|
#120000
0(
03
0'
00
02
1&
1/
01
0M
0L
1K
0X
0W
0V
0U
1T
1y
0q
0l
0n
0m
1!!
0x
0k
1t
1{
0|
0%!
0+!
0s
1#!
0*!
01!
08!
0?!
0E!
0o
1p
1H!
1A!
1G!
1:!
0@!
13!
19!
1%!
0t
1|
0$!
1u
1w
0%!
1}
0u
1&!
0:!
14!
0A!
1;!
0H!
1B!
1I!
1J!
1C!
0I!
1<!
0B!
15!
0;!
1'!
0w
1~
0&!
0K!
0'!
0<!
0C!
0L!
0J!
0M!
1b
1`
1c
0b
1d
1f
1g
1h
1i
1;
1_
0`
1^
1\
1[
1Z
1Y
0j
0i
0h
0g
0d
0;
1:
19
17
16
15
14
0a
0Y
0Z
0[
0^
0<
09
06
05
04
#130000
1(
1M
1k
1t
1u
1w
1b
1`
1;
#135000
13
1X
1m
1r
1s
0z
0#!
1*!
11!
18!
1?!
1E!
1H!
1A!
1:!
03!
09!
1,!
1%!
1+!
0|
0{
1|
0}
0,!
1&!
1-!
0:!
1@!
04!
1;!
1B!
1I!
1J!
1C!
1<!
05!
0A!
0G!
0;!
1.!
1'!
0-!
0~
1}
1~
0.!
0<!
0H!
0B!
0C!
0I!
1L!
0c
1d
1e
0f
1g
1h
1i
0J!
0_
1^
1]
0\
1[
1Z
1Y
0g
0e
1c
0:
19
18
07
16
15
14
0[
0]
1_
0h
1:
08
06
0Z
0i
05
0Y
04
#140000
0(
1'
10
0M
1L
1U
1q
1x
0k
0t
0|
1$!
0r
1t
1{
0%!
0+!
0}
0u
0w
0~
1,!
0&!
1|
0$!
1u
1w
1%!
1+!
1}
0'!
1-!
1.!
1~
0,!
1&!
0c
0b
1'!
0-!
0_
0`
0d
1b
0;
0:
0.!
0^
1`
1c
1e
1;
09
1_
1]
1d
1:
18
1^
0e
19
0]
08
#150000
1(
03
12
1M
0X
1W
1n
0m
1k
0t
0{
1r
0s
1z
1#!
0*!
01!
08!
0?!
0E!
0p
1v
1.!
1-!
14!
1;!
1B!
1I!
1H!
1A!
1G!
1:!
0@!
13!
19!
1,!
02!
0%!
0+!
1$!
1%!
0,!
12!
03!
0:!
0A!
0H!
0.!
13!
1e
1]
0e
18
0]
08
#160000
0(
0'
00
0&
0/
0%
0.
1$
1-
0M
0L
0K
0J
1I
0U
0T
0S
1R
1(!
0"!
0y
0q
1/!
0)!
0!!
0x
0k
1t
1{
0|
0%!
1,!
02!
03!
09!
0r
0w
0z
0~
0#!
0'!
1*!
0,!
12!
1%!
1+!
1K!
0t
1:!
13!
19!
0$!
0%!
0:!
1M!
1,!
02!
03!
09!
0d
0c
0b
1:!
13!
19!
0^
0_
0`
0;
0:
09
0:!
1j
1a
1<
#165000
13
1X
1m
1o
1r
1s
1z
1#!
0*!
11!
18!
1?!
1E!
1H!
1A!
1:!
03!
09!
0,!
1%!
1|
0{
0u
0}
0&!
0-!
04!
0;!
0B!
0I!
15!
1.!
0|
1$!
0:!
1@!
0A!
0G!
0%!
0+!
0K!
0L!
0M!
1,!
0H!
1e
1f
1]
1\
18
17
0j
0a
0<
#170000
1(
1M
1k
1t
1w
1b
1`
1;
#180000
0(
03
1'
10
02
11
0M
1L
0X
0W
1V
1U
1q
1l
0n
0m
1x
0k
0t
1|
1~
0s
0z
0#!
1*!
01!
08!
0?!
0E!
1p
0v
0w
0~
0.!
05!
1&!
1-!
1;!
1B!
1I!
1H!
1A!
1G!
1:!
0@!
13!
19!
0,!
12!
1%!
1+!
0|
1t
1{
1u
1w
1|
0$!
1,!
02!
03!
09!
0:!
0A!
0H!
1J!
1C!
1<!
1.!
1'!
1L!
1K!
1c
0L!
1:!
13!
19!
0%!
0K!
1_
0f
0e
0c
0b
1:
0:!
0\
0]
0_
0`
1d
1e
1g
1h
1i
1b
0;
0:
08
07
1^
1]
1[
1Z
1Y
1`
1;
19
18
16
15
14
#190000
1(
1M
1k
0t
0{
0u
0w
0|
1$!
1%!
0b
0`
0;
#195000
13
1X
1m
0p
0r
1s
1z
1#!
0*!
11!
18!
1?!
1E!
1H!
1A!
1:!
03!
09!
0,!
0%!
0+!
1|
0&!
0-!
0;!
0B!
0I!
0J!
0C!
0<!
0.!
0'!
1,!
0:!
1@!
0A!
0G!
1K!
1L!
1M!
0H!
0d
0e
0g
0h
0i
0^
0]
0[
0Z
0Y
09
08
06
05
04
1j
1a
1<
