projeto_nome/simulation/qsim/fsm_nome.msim.vcd
$comment
	File created using the following command:
		vcd file fsm_nome.msim.vcd -direction
$end
$date
	Tue Sep  4 14:51:43 2018
$end
$version
	ModelSim Version 10.5b
$end
$timescale
	1ps
$end

$scope module fsm_nome_vlg_vec_tst $end
$var reg 1 ! clear $end
$var reg 1 " clk $end
$var reg 1 # Entrada $end
$var wire 1 $ y0 $end
$var wire 1 % y1 $end
$var wire 1 & y2 $end
$var wire 1 ' y3 $end
$var wire 1 ( y4 $end
$var wire 1 ) y5 $end
$var wire 1 * y6 $end
$var wire 1 + y7 $end

$scope module i1 $end
$var wire 1 , gnd $end
$var wire 1 - vcc $end
$var wire 1 . unknown $end
$var tri1 1 / devclrn $end
$var tri1 1 0 devpor $end
$var tri1 1 1 devoe $end
$var wire 1 2 y0~output_o $end
$var wire 1 3 y1~output_o $end
$var wire 1 4 y2~output_o $end
$var wire 1 5 y3~output_o $end
$var wire 1 6 y4~output_o $end
$var wire 1 7 y5~output_o $end
$var wire 1 8 y6~output_o $end
$var wire 1 9 y7~output_o $end
$var wire 1 : clk~input_o $end
$var wire 1 ; clk~inputclkctrl_outclk $end
$var wire 1 < Entrada~input_o $end
$var wire 1 = inst7~0_combout $end
$var wire 1 > clear~input_o $end
$var wire 1 ? clear~inputclkctrl_outclk $end
$var wire 1 @ inst7~q $end
$var wire 1 A inst3~combout $end
$var wire 1 B inst6~q $end
$var wire 1 C instAND3~0_combout $end
$upscope $end
$upscope $end
$enddefinitions $end
#0
$dumpvars
0!
0"
0#
0$
1%
1&
0'
0(
0)
1*
0+
0,
1-
x.
1/
10
11
02
13
14
05
06
07
18
09
0:
0;
0<
0=
0>
0?
0@
0A
0B
1C
$end
#20000
1!
1"
1>
1:
1?
1;
#40000
1#
0"
1<
0:
0;
1A
#60000
1"
1:
1;
1B
04
12
1$
0&
0C
0A
1=
15
03
0%
1'
#80000
0#
0"
0<
0:
0;
1A
0=
#100000
1#
1"
1<
1:
1;
0A
1=
#120000
0"
0:
0;
#140000
1"
1:
1;
1@
0B
14
02
0$
1&
0=
#160000
0#
0"
0<
0:
0;
1=
#180000
1"
1:
1;
#200000
1#
0"
1<
0:
0;
0=
#220000
0#
1"
0<
1:
1;
1=
0@
1C
0=
05
13
1%
0'
#240000
0"
0:
0;
#260000
1"
1:
1;
#280000
0"
0:
0;
#300000
1#
1"
1<
1:
1;
1A
#320000
0#
0"
0<
0:
0;
0A
#340000
1"
1:
1;
#360000
1#
0"
1<
0:
0;
1A
#380000
1"
1:
1;
1B
04
12
1$
0&
0C
0A
1=
15
03
0%
1'
#400000
0"
0:
0;
#420000
1"
1:
1;
1@
0B
14
02
0$
1&
0=
#440000
0"
0:
0;
#460000
1"
1:
1;
0@
1C
1A
05
13
1%
0'
#480000
0"
0:
0;
#500000
1"
1:
1;
1B
04
12
1$
0&
0C
0A
1=
15
03
0%
1'
#520000
0"
0:
0;
#540000
1"
1:
1;
1@
0B
14
02
0$
1&
0=
#560000
0"
0:
0;
#580000
0#
1"
0<
1:
1;
1=
0@
1C
0=
05
13
1%
0'
#600000
1#
0"
1<
0:
0;
1A
#620000
1"
1:
1;
1B
04
12
1$
0&
0C
0A
1=
15
03
0%
1'
#640000
0#
0"
0<
0:
0;
1A
0=
#660000
1"
1:
1;
#680000
0"
0:
0;
#700000
1"
1:
1;
#720000
0"
0:
0;
#740000
1"
1:
1;
#760000
0"
0:
0;
#780000
1"
1:
1;
#800000
0"
0:
0;
#820000
1"
1:
1;
#840000
1#
0"
1<
0:
0;
0A
1=
#860000
1"
1:
1;
1@
0B
14
02
0$
1&
0=
#880000
0#
0"
0<
0:
0;
1=
#900000
1"
1:
1;
#920000
1#
0"
1<
0:
0;
0=
#940000
1"
1:
1;
0@
1C
1A
05
13
1%
0'
#960000
0#
0"
0<
0:
0;
0A
#980000
1"
1:
1;
